{
	"msg": "操作成功!",
	"result": {
		"items": {
			"112492578718": {
				"spuId": "112492581503",
				"skuId": "112492578718",
				"spuName": "MOTI 雾化弹 4只装（相同口味）",
				"skuName": "青焙绿茶",
				"num": "1",
				"singlePrice": "129.00",
				"price": "129.0",
				"selected": false,
				"pictureList": [{
					"serviceName": null,
					"functionName": null,
					"page": 0,
					"rows": 0,
					"id": "19",
					"ids": null,
					"name": null,
					"code": null,
					"validStatus": null,
					"validStatusName": null,
					"createTime": "2019-06-04 21:14:44.0",
					"modifyTime": null,
					"createUser": null,
					"createUserName": null,
					"modifyUser": null,
					"modifyUserName": null,
					"provinceCode": null,
					"provinceName": null,
					"cityCode": null,
					"cityName": null,
					"districtCode": null,
					"districtName": null,
					"skuId": "112492578718",
					"pictureUrl": "https://moti-dev.oss-cn-beijing.aliyuncs.com/image/user/goods/2/same/112492577776/112492578718.jpg",
					"sortNumber": null
				}],
				"attributes": "3",
				"attrValueList": [{
					"serviceName": null,
					"functionName": null,
					"page": 0,
					"rows": 0,
					"id": "3",
					"ids": null,
					"name": null,
					"code": null,
					"validStatus": null,
					"validStatusName": null,
					"createTime": "2019-06-05 15:29:47.0",
					"modifyTime": null,
					"createUser": null,
					"createUserName": null,
					"modifyUser": null,
					"modifyUserName": null,
					"provinceCode": null,
					"provinceName": null,
					"cityCode": null,
					"cityName": null,
					"districtCode": null,
					"districtName": null,
					"attrId": "2",
					"attrStatus": "1",
					"attrValue": "青焙绿茶",
					"sortNum": "3"
				}]
			},
			"112492580527": {
				"spuId": "112492581503",
				"skuId": "112492580527",
				"spuName": "MOTI 雾化弹 4只装（相同口味）",
				"skuName": "清甜西瓜",
				"num": "2",
				"singlePrice": "149.00",
				"price": "149.0",
				"selected": false,
				"pictureList": [{
					"serviceName": null,
					"functionName": null,
					"page": 0,
					"rows": 0,
					"id": "14",
					"ids": null,
					"name": null,
					"code": null,
					"validStatus": null,
					"validStatusName": null,
					"createTime": "2019-06-04 21:14:44.0",
					"modifyTime": null,
					"createUser": null,
					"createUserName": null,
					"modifyUser": null,
					"modifyUserName": null,
					"provinceCode": null,
					"provinceName": null,
					"cityCode": null,
					"cityName": null,
					"districtCode": null,
					"districtName": null,
					"skuId": "112492580527",
					"pictureUrl": "https://moti-dev.oss-cn-beijing.aliyuncs.com/image/user/goods/2/same/112492579664/112492580527.jpg",
					"sortNumber": null
				}],
				"attributes": "1",
				"attrValueList": [{
					"serviceName": null,
					"functionName": null,
					"page": 0,
					"rows": 0,
					"id": "1",
					"ids": null,
					"name": null,
					"code": null,
					"validStatus": null,
					"validStatusName": null,
					"createTime": "2019-06-05 15:29:47.0",
					"modifyTime": null,
					"createUser": null,
					"createUserName": null,
					"modifyUser": null,
					"modifyUserName": null,
					"provinceCode": null,
					"provinceName": null,
					"cityCode": null,
					"cityName": null,
					"districtCode": null,
					"districtName": null,
					"attrId": "2",
					"attrStatus": "1",
					"attrValue": "清甜西瓜",
					"sortNum": "1"
				}]
			},
			"112492575952": {
				"spuId": "112492577792",
				"skuId": "112492575952",
				"spuName": "MOTI 雾化弹 1只装",
				"skuName": "激爽薄荷",
				"num": "1",
				"singlePrice": "35.00",
				"price": "35.0",
				"selected": false,
				"pictureList": [{
					"serviceName": null,
					"functionName": null,
					"page": 0,
					"rows": 0,
					"id": "6",
					"ids": null,
					"name": null,
					"code": null,
					"validStatus": null,
					"validStatusName": null,
					"createTime": "2019-06-04 21:14:44.0",
					"modifyTime": null,
					"createUser": null,
					"createUserName": null,
					"modifyUser": null,
					"modifyUserName": null,
					"provinceCode": null,
					"provinceName": null,
					"cityCode": null,
					"cityName": null,
					"districtCode": null,
					"districtName": null,
					"skuId": "112492575952",
					"pictureUrl": "https://moti-dev.oss-cn-beijing.aliyuncs.com/image/user/goods/2/single/112492577874/112492575952.jpg",
					"sortNumber": null
				}],
				"attributes": "2",
				"attrValueList": [{
					"serviceName": null,
					"functionName": null,
					"page": 0,
					"rows": 0,
					"id": "2",
					"ids": null,
					"name": null,
					"code": null,
					"validStatus": null,
					"validStatusName": null,
					"createTime": "2019-06-05 15:29:47.0",
					"modifyTime": null,
					"createUser": null,
					"createUserName": null,
					"modifyUser": null,
					"modifyUserName": null,
					"provinceCode": null,
					"provinceName": null,
					"cityCode": null,
					"cityName": null,
					"districtCode": null,
					"districtName": null,
					"attrId": "2",
					"attrStatus": "1",
					"attrValue": "激爽薄荷",
					"sortNum": "2"
				}]
			},
			"112492582304": {
				"spuId": "112492576695",
				"skuId": "112492582304",
				"spuName": "MOTI 雾化弹 4只装（混合口味）",
				"skuName": "黄金年代",
				"num": "1",
				"singlePrice": "149.00",
				"price": "149.0",
				"selected": false,
				"pictureList": [{
					"serviceName": null,
					"functionName": null,
					"page": 0,
					"rows": 0,
					"id": "24",
					"ids": null,
					"name": null,
					"code": null,
					"validStatus": null,
					"validStatusName": null,
					"createTime": "2019-06-04 21:14:44.0",
					"modifyTime": null,
					"createUser": null,
					"createUserName": null,
					"modifyUser": null,
					"modifyUserName": null,
					"provinceCode": null,
					"provinceName": null,
					"cityCode": null,
					"cityName": null,
					"districtCode": null,
					"districtName": null,
					"skuId": "112492582304",
					"pictureUrl": "https://moti-dev.oss-cn-beijing.aliyuncs.com/image/user/goods/2/different/112492577800/112492582304.jpg",
					"sortNumber": null
				}],
				"attributes": "22",
				"attrValueList": [{
					"serviceName": null,
					"functionName": null,
					"page": 0,
					"rows": 0,
					"id": "22",
					"ids": null,
					"name": null,
					"code": null,
					"validStatus": null,
					"validStatusName": null,
					"createTime": "2019-06-05 15:29:47.0",
					"modifyTime": null,
					"createUser": null,
					"createUserName": null,
					"modifyUser": null,
					"modifyUserName": null,
					"provinceCode": null,
					"provinceName": null,
					"cityCode": null,
					"cityName": null,
					"districtCode": null,
					"districtName": null,
					"attrId": "2",
					"attrStatus": "1",
					"attrValue": "黄金年代",
					"sortNum": "22"
				}]
			},
			"112492577833": {
				"spuId": "112492577792",
				"skuId": "112492577833",
				"spuName": "MOTI 雾化弹 1只装",
				"skuName": "清甜西瓜",
				"num": "6",
				"singlePrice": "39.00",
				"price": "39.0",
				"selected": false,
				"pictureList": [{
					"serviceName": null,
					"functionName": null,
					"page": 0,
					"rows": 0,
					"id": "2",
					"ids": null,
					"name": null,
					"code": null,
					"validStatus": null,
					"validStatusName": null,
					"createTime": "2019-06-04 21:14:44.0",
					"modifyTime": null,
					"createUser": null,
					"createUserName": null,
					"modifyUser": null,
					"modifyUserName": null,
					"provinceCode": null,
					"provinceName": null,
					"cityCode": null,
					"cityName": null,
					"districtCode": null,
					"districtName": null,
					"skuId": "112492577833",
					"pictureUrl": "https://moti-dev.oss-cn-beijing.aliyuncs.com/image/user/goods/2/single/112492577831/112492577833.jpg",
					"sortNumber": null
				}],
				"attributes": "1",
				"attrValueList": [{
					"serviceName": null,
					"functionName": null,
					"page": 0,
					"rows": 0,
					"id": "1",
					"ids": null,
					"name": null,
					"code": null,
					"validStatus": null,
					"validStatusName": null,
					"createTime": "2019-06-05 15:29:47.0",
					"modifyTime": null,
					"createUser": null,
					"createUserName": null,
					"modifyUser": null,
					"modifyUserName": null,
					"provinceCode": null,
					"provinceName": null,
					"cityCode": null,
					"cityName": null,
					"districtCode": null,
					"districtName": null,
					"attrId": "2",
					"attrStatus": "1",
					"attrValue": "清甜西瓜",
					"sortNum": "1"
				}]
			}
		},
		"buyerId": "588814697340473344",
		"sellerId": null,
		"shopId": null,
		"productAmount": 11,
		"productPrice": "501.00"
	},
	"code": "0"
}
